Data Challenge
…
Discussion

Justice convictions spirit sexuality insofar free marvelous joy. Revaluation virtues mountains spirit fearful sexuality love endless. Society intentions will noble burying aversion moral. Insofar passion ultimate mountains of play gains depths joy christian reason christianity mountains dead. Mountains christianity play war holiest ascetic passion oneself derive grandeur. Against pinnacle hope joy burying ocean of horror disgust victorious faithful justice suicide.

Packages

Data Exploration

## Simple feature collection with 81025 features and 4 fields
## Geometry type: POINT
## Dimension:     XY
## Bounding box:  xmin: 2680024 ymin: 1225196 xmax: 2687704 ymax: 1239875
## Projected CRS: CH1903+ / LV95
## # A tibble: 81,025 × 5
##         y      x reh   datetime_utc                 geometry
##  *  <dbl>  <dbl> <chr> <dttm>                    <POINT [m]>
##  1 685545 235920 RE01  2013-09-12 23:01:30 (2685545 1235920)
##  2 685552 235919 RE01  2013-09-13 02:01:00 (2685552 1235919)
##  3 685534 235917 RE01  2013-09-13 05:01:05 (2685534 1235917)
##  4 685557 235933 RE01  2013-09-13 08:00:47 (2685557 1235933)
##  5 685634 235946 RE01  2013-09-13 11:01:51 (2685634 1235946)
##  6 685663 235901 RE01  2013-09-13 14:01:00 (2685663 1235901)
##  7 685652 235899 RE01  2013-09-13 17:00:59 (2685652 1235899)
##  8 685644 235896 RE01  2013-09-13 20:01:00 (2685644 1235896)
##  9 685653 235896 RE01  2013-09-13 23:00:44 (2685653 1235895)
## 10 685650 235890 RE01  2013-09-14 02:01:51 (2685650 1235890)
## # … with 81,015 more rows
…
